acl-2.3.1-3.el9
alternatives-1.24-1.el9
audit-libs-3.0.7-104.el9
avahi-0.8-15.el9
avahi-libs-0.8-15.el9
basesystem-11-13.el9
bash-5.1.8-6.el9
bash-completion-1:2.11-4.el9
bc-1.07.1-14.el9
binutils-2.35.2-42.el9
binutils-gold-2.35.2-42.el9
bzip2-1.0.8-8.el9
bzip2-libs-1.0.8-8.el9
ca-certificates-2023.2.60_v7.0.306-90.1.el9
centos-gpg-keys-9.0-23.el9
centos-stream-release-9.0-23.el9
centos-stream-repos-9.0-23.el9
coreutils-8.32-34.el9
coreutils-common-8.32-34.el9
cpio-2.13-16.el9
cracklib-2.9.6-27.el9
cracklib-dicts-2.9.6-27.el9
crypto-policies-20230731-1.git94f0e2c.el9
curl-7.76.1-26.el9
cyrus-sasl-lib-2.1.27-21.el9
dbus-1:1.12.20-8.el9
dbus-broker-28-7.el9
dbus-common-1:1.12.20-8.el9
dbus-libs-1:1.12.20-8.el9
debugedit-5.0-4.el9
diffutils-3.7-12.el9
dnf-data-4.14.0-8.el9
dnf-plugins-core-4.3.0-11.el9
dwz-0.14-3.el9
ed-1.14.2-12.el9
efi-srpm-macros-4-9.el9
elfutils-0.189-3.el9
elfutils-debuginfod-client-0.189-3.el9
elfutils-default-yama-scope-0.189-3.el9
elfutils-libelf-0.189-3.el9
elfutils-libs-0.189-3.el9
emacs-filesystem-1:27.2-9.el9
expat-2.5.0-1.el9
file-5.39-14.el9
file-libs-5.39-14.el9
filesystem-3.16-2.el9
findutils-1:4.8.0-6.el9
fonts-srpm-macros-1:2.0.5-7.el9.1
fpaste-0.4.3.0-1.el9
gawk-5.1.0-6.el9
gawk-all-langpacks-5.1.0-6.el9
gdb-minimal-10.2-11.el9
gdbm-libs-1:1.19-4.el9
ghc-srpm-macros-1.5.0-6.el9
git-2.39.3-1.el9
git-core-2.39.3-1.el9
git-core-doc-2.39.3-1.el9
glib2-2.68.4-11.el9
glibc-2.34-82.el9
glibc-common-2.34-82.el9
glibc-gconv-extra-2.34-82.el9
glibc-minimal-langpack-2.34-82.el9
gmp-1:6.2.0-13.el9
gnupg2-2.3.3-4.el9
gnupg2-smime-2.3.3-4.el9
gnutls-3.7.6-23.el9
go-srpm-macros-3.2.0-2.el9
gpgme-1.15.1-6.el9
grep-3.6-5.el9
groff-base-1.22.4-10.el9
gvfs-client-1.48.1-4.el9
gzip-1.12-1.el9
hostname-3.23-6.el9
ima-evm-utils-1.4-4.el9
info-6.7-15.el9
iproute-6.2.0-5.el9
iputils-20210202-9.el9
jansson-2.14-1.el9
json-c-0.14-11.el9
kernel-srpm-macros-1.0-13.el9
keyutils-1.6.3-1.el9
keyutils-libs-1.6.3-1.el9
kmod-libs-28-9.el9
krb5-libs-1.21.1-1.el9
less-590-2.el9
libacl-2.3.1-3.el9
libarchive-3.5.3-4.el9
libassuan-2.5.5-3.el9
libattr-2.5.1-3.el9
libblkid-2.37.4-15.el9
libbpf-2:1.2.0-1.el9
libbrotli-1.0.9-6.el9
libcap-2.48-9.el9
libcap-ng-0.8.2-7.el9
libcbor-0.7.0-5.el9
libcom_err-1.46.5-3.el9
libcomps-0.1.18-1.el9
libcurl-7.76.1-26.el9
libdaemon-0.14-23.el9
libdb-5.3.28-53.el9
libdnf-0.69.0-6.el9
libeconf-0.4.1-3.el9
libedit-3.1-38.20210216cvs.el9
libevent-2.1.12-6.el9
libfdisk-2.37.4-15.el9
libffi-3.4.2-8.el9
libfido2-1.13.0-1.el9
libgcc-11.4.1-2.1.el9
libgcrypt-1.10.0-10.el9
libgomp-11.4.1-2.1.el9
libgpg-error-1.42-5.el9
libibverbs-46.0-1.el9
libidn2-2.3.0-7.el9
libksba-1.5.1-6.el9
libmnl-1.0.4-15.el9
libmodulemd-2.13.0-2.el9
libmount-2.37.4-15.el9
libnghttp2-1.43.0-5.el9
libnl3-3.7.0-1.el9
libpcap-14:1.10.0-4.el9
libpipeline-1.5.3-4.el9
libpkgconf-1.7.3-10.el9
libpsl-0.21.1-5.el9
libpwquality-1.4.4-8.el9
librepo-1.14.5-1.el9
libreport-filesystem-2.15.2-6.el9
libseccomp-2.5.2-2.el9
libselinux-3.5-1.el9
libsemanage-3.5-2.el9
libsepol-3.5-1.el9
libsigsegv-2.13-4.el9
libsmartcols-2.37.4-15.el9
libsolv-0.7.24-2.el9
libssh-0.10.4-11.el9
libssh-config-0.10.4-11.el9
libstdc++-11.4.1-2.1.el9
libtasn1-4.16.0-8.el9
libtirpc-1.3.3-2.el9
libunistring-0.9.10-15.el9
libuser-0.63-13.el9
libutempter-1.2.1-6.el9
libuuid-2.37.4-15.el9
libverto-0.3.2-3.el9
libxcrypt-4.4.18-3.el9
libxcrypt-compat-4.4.18-3.el9
libxml2-2.9.13-4.el9
libyaml-0.2.5-7.el9
libzstd-1.5.1-2.el9
lsof-4.94.0-3.el9
lua-libs-5.4.4-4.el9
lua-srpm-macros-1-6.el9
lz4-libs-1.9.3-5.el9
man-db-2.9.3-7.el9
man-pages-6.04-1.el9
mpfr-4.1.0-7.el9
mtr-2:0.94-4.el9
ncurses-6.2-10.20210508.el9
ncurses-base-6.2-10.20210508.el9
ncurses-libs-6.2-10.20210508.el9
nettle-3.8-3.el9
npth-1.6-8.el9
nss-mdns-0.15.1-3.1.el9
ocaml-srpm-macros-6-6.el9
openblas-srpm-macros-2-11.el9
openldap-2.6.3-1.el9
openssh-8.7p1-34.el9
openssh-clients-8.7p1-34.el9
openssl-1:3.0.7-24.el9
openssl-libs-1:3.0.7-24.el9
p11-kit-0.24.1-2.el9
p11-kit-trust-0.24.1-2.el9
pam-1.5.1-15.el9
passwd-0.80-12.el9
patch-2.7.6-16.el9
pcre-8.44-3.el9.3
pcre2-10.40-2.el9
pcre2-syntax-10.40-2.el9
perl-AutoLoader-5.74-480.el9
perl-B-1.80-480.el9
perl-Carp-1.50-460.el9
perl-Class-Struct-0.66-480.el9
perl-Data-Dumper-2.174-462.el9
perl-Digest-1.19-4.el9
perl-Digest-MD5-2.58-4.el9
perl-DynaLoader-1.47-480.el9
perl-Encode-4:3.08-462.el9
perl-Errno-1.30-480.el9
perl-Error-1:0.17029-7.el9
perl-Exporter-5.74-461.el9
perl-Fcntl-1.13-480.el9
perl-File-Basename-2.85-480.el9
perl-File-Find-1.37-480.el9
perl-File-Path-2.18-4.el9
perl-File-Temp-1:0.231.100-4.el9
perl-File-stat-1.09-480.el9
perl-FileHandle-2.03-480.el9
perl-Getopt-Long-1:2.52-4.el9
perl-Getopt-Std-1.12-480.el9
perl-Git-2.39.3-1.el9
perl-HTTP-Tiny-0.076-461.el9
perl-IO-1.43-480.el9
perl-IO-Socket-IP-0.41-5.el9
perl-IO-Socket-SSL-2.073-1.el9
perl-IPC-Open3-1.21-480.el9
perl-MIME-Base64-3.16-4.el9
perl-Mozilla-CA-20200520-6.el9
perl-NDBM_File-1.15-480.el9
perl-Net-SSLeay-1.92-2.el9
perl-POSIX-1.94-480.el9
perl-PathTools-3.78-461.el9
perl-Pod-Escapes-1:1.07-460.el9
perl-Pod-Perldoc-3.28.01-461.el9
perl-Pod-Simple-1:3.42-4.el9
perl-Pod-Usage-4:2.01-4.el9
perl-Scalar-List-Utils-4:1.56-461.el9
perl-SelectSaver-1.02-480.el9
perl-Socket-4:2.031-4.el9
perl-Storable-1:3.21-460.el9
perl-Symbol-1.08-480.el9
perl-Term-ANSIColor-5.01-461.el9
perl-Term-Cap-1.17-460.el9
perl-TermReadKey-2.38-11.el9
perl-Text-ParseWords-3.30-460.el9
perl-Text-Tabs+Wrap-2013.0523-460.el9
perl-Time-Local-2:1.300-7.el9
perl-URI-5.09-3.el9
perl-base-2.27-480.el9
perl-constant-1.33-461.el9
perl-if-0.60.800-480.el9
perl-interpreter-4:5.32.1-480.el9
perl-lib-0.65-480.el9
perl-libnet-3.13-4.el9
perl-libs-4:5.32.1-480.el9
perl-mro-1.23-480.el9
perl-overload-1.31-480.el9
perl-overloading-0.02-480.el9
perl-parent-1:0.238-460.el9
perl-podlators-1:4.14-460.el9
perl-srpm-macros-1-41.el9
perl-subs-1.03-480.el9
perl-vars-1.05-480.el9
pigz-2.5-4.el9
pkgconf-1.7.3-10.el9
pkgconf-m4-1.7.3-10.el9
pkgconf-pkg-config-1.7.3-10.el9
popt-1.18-8.el9
procps-ng-3.3.17-13.el9
psmisc-23.4-3.el9
publicsuffix-list-dafsa-20210518-3.el9
pyproject-srpm-macros-1.9.0-1.el9
python-srpm-macros-3.9-52.el9
python-unversioned-command-3.9.17-2.el9
python3-3.9.17-2.el9
python3-argcomplete-1.12.0-5.el9
python3-chardet-4.0.0-5.el9
python3-dateutil-1:2.8.1-7.el9
python3-dbus-1.2.18-2.el9
python3-dnf-4.14.0-8.el9
python3-dnf-plugins-core-4.3.0-11.el9
python3-gpg-1.15.1-6.el9
python3-hawkey-0.69.0-6.el9
python3-idna-2.10-7.el9
python3-libcomps-0.1.18-1.el9
python3-libdnf-0.69.0-6.el9
python3-libs-3.9.17-2.el9
python3-pip-wheel-21.2.3-7.el9
python3-pysocks-1.7.1-12.el9
python3-requests-2.25.1-7.el9
python3-rpm-4.16.1.3-25.el9
python3-setuptools-wheel-53.0.0-12.el9
python3-six-1.15.0-9.el9
python3-systemd-234-18.el9
python3-urllib3-1.26.5-3.el9
qt5-srpm-macros-5.15.9-1.el9
readline-8.1-4.el9
redhat-rpm-config-203-1.el9
rpm-4.16.1.3-25.el9
rpm-build-4.16.1.3-25.el9
rpm-build-libs-4.16.1.3-25.el9
rpm-libs-4.16.1.3-25.el9
rpm-plugin-systemd-inhibit-4.16.1.3-25.el9
rpm-sign-libs-4.16.1.3-25.el9
rpmdevtools-9.5-1.el9
rsync-3.2.3-19.el9
rust-srpm-macros-17-4.el9
sed-4.8-9.el9
setup-2.13.7-9.el9
shadow-utils-2:4.9-8.el9
sqlite-libs-3.34.1-6.el9
sudo-1.9.5p2-9.el9
systemd-252-18.el9
systemd-libs-252-18.el9
systemd-pam-252-18.el9
systemd-rpm-macros-252-18.el9
tar-2:1.34-6.el9
tcpdump-14:4.99.0-7.el9
time-1.9-18.el9
tpm2-tss-3.2.2-2.el9
traceroute-3:2.1.0-16.el9
tree-1.8.0-10.el9
tzdata-2023c-1.el9
unzip-6.0-56.el9
util-linux-2.37.4-15.el9
util-linux-core-2.37.4-15.el9
vte-profile-0.64.2-2.el9
wget-1.21.1-7.el9
which-2.21-29.el9
whois-5.5.9-4.el9
whois-nls-5.5.9-4.el9
words-3.0-39.el9
xz-5.2.5-8.el9
xz-libs-5.2.5-8.el9
zip-3.0-35.el9
zlib-1.2.11-40.el9
zstd-1.5.1-2.el9